shift8_test/my_db.vcd
$date
     Dec 31, 2022       11:05:58
$end

$version
 SystemC 2.3.3-Accellera --- Dec 28 2022 21:47:10
$end

$timescale
     1 ps
$end

$scope module SystemC $end
$var wire    1  aaaaa  clock       $end
$var wire    1  aaaab  input       $end
$var wire    8  aaaac  output [7:0]  $end
$upscope $end
$enddefinitions  $end

$comment
All initial values are dumped below at time 0 sec = 0 timescale units.
$end

$dumpvars
1aaaaa
0aaaab
b0 aaaac
$end

#5000
0aaaaa

#10000
1aaaaa

#15000
0aaaaa
1aaaab

#20000
1aaaaa
b1 aaaac

#25000
0aaaaa

#30000
1aaaaa
0aaaab
b10 aaaac

#35000
0aaaaa

#40000
1aaaaa
b100 aaaac

#45000
0aaaaa

#50000
1aaaaa
b1000 aaaac

#55000
0aaaaa

#60000
1aaaaa
b10000 aaaac

#65000
0aaaaa

#70000
1aaaaa
b100000 aaaac

#75000
0aaaaa

#80000
1aaaaa
b1000000 aaaac

#85000
0aaaaa

#90000
1aaaaa
b10000000 aaaac

#95000
0aaaaa

#100000
1aaaaa
b0 aaaac

